{
  "paths": {
    "/connect-account-webhook": {
      "post": {
        "tags": [
          "User"
        ],
        "security": [
          {
            "Bearer": []
          }
        ],
        "summary": "Connect account webhook",
        "description": "Connect account webhook",
        "operationId": "connectAccountWebhook",
        "parameters": [
          {
            "name": "Connect account webhook",
            "in": "body",
            "description": "Connect account webhook",
            "schema": {
              "$ref": "#/definitions/connectAccountWebhook"
            },
            "required": true
          }
        ],
        "responses": {}
      }
    },
    "/signup": {
      "post": {
        "tags": [
          "User"
        ],
        "security": [
          {
            "Bearer": []
          }
        ],
        "summary": "Add a new user",
        "description": "Add a new user",
        "operationId": "Signup",
        "parameters": [
          {
            "name": "User signup",
            "in": "body",
            "description": "Signup body",
            "schema": {
              "$ref": "#/definitions/Signup"
            },
            "required": true
          }
        ],
        "responses": {}
      }
    },
    "/login": {
      "post": {
        "tags": [
          "User"
        ],
        "security": [
          {
            "Bearer": []
          }
        ],
        "summary": "Login user",
        "description": "Login user",
        "operationId": "login",
        "parameters": [
          {
            "name": "User login",
            "in": "body",
            "schema": {
              "$ref": "#/definitions/login"
            },
            "required": true
          }
        ],
        "responses": {}
      }
    },
    "/verify/email": {
      "post": {
        "tags": [
          "User"
        ],
        "security": [{
          "Bearer": []
        }],
        "summary": "Verify Email",
        "description": "Verify Email",
        "operationId": "verifyEmail",
        "parameters": [{
          "in": "body",
          "name": "email verify",
          "schema": {
            "$ref": "#/definitions/verifyEmail"
          },
          "required": true
        }],
        "responses": {}
      }
    },
    "/login-as-user": {
      "get": {
        "tags": [
          "User"
        ],
        "security": [
          {
            "Bearer": []
          }
        ],
        "summary": "login as a user",
        "description": "login as a user",
        "operationId": "loginAsUser",
        "parameters": [
          {
            "in": "query",
            "name": "id",
            "required": true,
            "type": "integer"
          }
        ],
        "responses": {}
      }
    },
    "/activateDeactivate": {
      "post": {
        "tags": [
          "User"
        ],
        "security": [
          {
            "Bearer": []
          }
        ],
        "summary": "Activate deactivate user",
        "description": "Activate deactivate user",
        "operationId": "activateDeactivate",
        "parameters": [
          {
            "name": "Activate deactivate user",
            "in": "body",
            "schema": {
              "$ref": "#/definitions/activateDeactivate"
            },
            "required": true
          }
        ],
        "responses": {}
      }
    },
    "/static-data": {
      "get": {
        "tags": [
          "User"
        ],
        "security": [
          {
            "Bearer": []
          }
        ],
        "summary": "admin data list",
        "description": "admin data list",
        "operationId": "adminDataList",
        "parameters": [
          {
            "in": "query",
            "name": "lang",
            "required": true,
            "type": "string",
            "description": "en or jp"
          }
        ],
        "responses": {}
      }
    },
    "/static-pages": {
      "get": {
        "tags": [
          "User"
        ],
        "security": [
          {
            "Bearer": []
          }
        ],
        "summary": "static pages",
        "description": "static pages",
        "operationId": "staticPages",
        "parameters": [
          {
            "in": "query",
            "name": "id",
            "required": true,
            "type": "integer",
            "description": "1:About us 2:Privacy policy"
          },
          {
            "in": "query",
            "name": "lang",
            "required": true,
            "type": "string",
            "description": "en or jp"
          }
        ],
        "responses": {}
      }
    },
    "/contact-us": {
      "post": {
        "tags": [
          "User"
        ],
        "security": [
          {
            "Bearer": []
          }
        ],
        "summary": "home contact us",
        "description": "home contact us",
        "operationId": "homeContactUs",
        "parameters": [
          {
            "name": "home contact us",
            "in": "body",
            "schema": {
              "$ref": "#/definitions/homeContactUs"
            },
            "required": true
          }
        ],
        "responses": {}
      }
    },
    "/nationality": {
      "get": {
        "tags": [
          "User"
        ],
        "security": [
          {
            "Bearer": []
          }
        ],
        "summary": "Get nationality",
        "description": "Get nationality",
        "operationId": "nationality",
        "responses": {}
      }
    },
    "/languages": {
      "get": {
        "tags": [
          "User"
        ],
        "security": [
          {
            "Bearer": []
          }
        ],
        "summary": "Get languages",
        "description": "Get languages",
        "operationId": "languages",
        "responses": {}
      }
    },
    "/occupations": {
      "get": {
        "tags": [
          "User"
        ],
        "security": [
          {
            "Bearer": []
          }
        ],
        "summary": "Get occupations",
        "description": "Get occupations",
        "operationId": "occupations",
        "responses": {}
      }
    },
    "/profile": {
      "get": {
        "tags": [
          "User"
        ],
        "security": [
          {
            "Bearer": []
          }
        ],
        "summary": "Get user profile",
        "description": "Get user profile",
        "operationId": "profile",
        "parameters": [
          {
            "in": "query",
            "name": "user_id",
            "required": false,
            "type": "integer"
          }
        ],
        "responses": {}
      },
      "put": {
        "tags": [
          "User"
        ],
        "security": [
          {
            "Bearer": []
          }
        ],
        "summary": "Update user profile",
        "description": "Update user profile",
        "operationId": "updateProfile",
        "parameters": [
          {
            "in": "body",
            "name": "update profile",
            "schema": {
              "$ref": "#/definitions/updateUserProfile"
            },
            "required": false
          }
        ],
        "responses": {}
      }
    },
    "/academic": {
      "post": {
        "tags": [
          "User"
        ],
        "security": [
          {
            "Bearer": []
          }
        ],
        "summary": "Add academic",
        "description": "Add academic",
        "operationId": "addAcademic",
        "parameters": [
          {
            "name": "Add academic",
            "in": "body",
            "description": "Add academic",
            "schema": {
              "$ref": "#/definitions/addAcademic"
            },
            "required": true
          }
        ],
        "responses": {}
      },
      "put": {
        "tags": [
          "User"
        ],
        "security": [
          {
            "Bearer": []
          }
        ],
        "summary": "Edit academic",
        "description": "Edit academic",
        "operationId": "editAcademic",
        "parameters": [
          {
            "name": "Edit academic",
            "in": "body",
            "description": "Edit academic",
            "schema": {
              "$ref": "#/definitions/editAcademic"
            },
            "required": true
          }
        ],
        "responses": {}
      },
      "get": {
        "tags": [
          "User"
        ],
        "security": [
          {
            "Bearer": []
          }
        ],
        "summary": "get academic detail",
        "description": "get academic detail",
        "operationId": "acdemicDetail",
        "parameters": [
          {
            "in": "query",
            "name": "academic_id",
            "required": true,
            "type": "integer"
          }
        ],
        "responses": {}
      },
      "delete": {
        "tags": [
          "User"
        ],
        "security": [
          {
            "Bearer": []
          }
        ],
        "summary": "Delete academic",
        "description": "Delete academic",
        "operationId": "deleteAcademic",
        "parameters": [
          {
            "name": "Delete academic",
            "in": "body",
            "description": "Delete academic",
            "schema": {
              "$ref": "#/definitions/deleteAcademic"
            },
            "required": true
          }
        ],
        "responses": {}
      }
    },
    "/certificates": {
      "get": {
        "tags": [
          "User"
        ],
        "security": [
          {
            "Bearer": []
          }
        ],
        "summary": "get certificate detail",
        "description": "get certificate detail",
        "operationId": "certificateDetail",
        "parameters": [
          {
            "in": "query",
            "name": "certificate_id",
            "required": true,
            "type": "integer"
          }
        ],
        "responses": {}
      },
      "post": {
        "tags": [
          "User"
        ],
        "security": [
          {
            "Bearer": []
          }
        ],
        "summary": "Add certificate",
        "description": "Add certificate",
        "operationId": "addCertificate",
        "parameters": [
          {
            "name": "Add certificate",
            "in": "body",
            "description": "Add certificate",
            "schema": {
              "$ref": "#/definitions/addCertificate"
            },
            "required": true
          }
        ],
        "responses": {}
      },
      "put": {
        "tags": [
          "User"
        ],
        "security": [
          {
            "Bearer": []
          }
        ],
        "summary": "Edit certificate",
        "description": "Edit certificate",
        "operationId": "editCertificate",
        "parameters": [
          {
            "name": "Edit certificate",
            "in": "body",
            "description": "Edit certificate",
            "schema": {
              "$ref": "#/definitions/editCertificate"
            },
            "required": true
          }
        ],
        "responses": {}
      },
      "delete": {
        "tags": [
          "User"
        ],
        "security": [
          {
            "Bearer": []
          }
        ],
        "summary": "Delete certificate",
        "description": "Delete certificate",
        "operationId": "deleteCertificate",
        "parameters": [
          {
            "name": "Delete certificate",
            "in": "body",
            "description": "Delete certificate",
            "schema": {
              "$ref": "#/definitions/deleteCertificate"
            },
            "required": true
          }
        ],
        "responses": {}
      }
    },
    
    "/forgot/password": {
      "post": {
        "tags": [
          "User"
        ],
        "security": [
          {
            "Bearer": []
          }
        ],
        "summary": "Forgot Password",
        "description": "Forgot Password",
        "operationId": "forgotPassword",
        "parameters": [
          {
            "in": "body",
            "name": "forgot password",
            "schema": {
              "$ref": "#/definitions/forgotPassword"
            },
            "required": true
          }
        ],
        "responses": {}
      }
    },
    "/resend/verification-email": {
      "post": {
        "tags": [
          "User"
        ],
        "security": [
          {
            "Bearer": []
          }
        ],
        "summary": "Resend verification email",
        "description": "Resend verification email",
        "operationId": "resendVerificationEmail",
       
        "responses": {}
      }
    },
    "/check-email-otp": {
      "post": {
        "tags": [
          "User"
        ],
        "security": [
          {
            "Bearer": []
          }
        ],
        "summary": "Check email otp",
        "description": "Check email otp",
        "operationId": "emailOtp",
        "parameters": [
          {
            "in": "body",
            "name": "Check email otp",
            "schema": {
              "$ref": "#/definitions/emailOtp"
            },
            "required": true
          }
        ],
        "responses": {}
      }
    },
    "/reset/password": {
      "post": {
        "tags": [
          "User"
        ],
        "security": [
          {
            "Bearer": []
          }
        ],
        "summary": "Reset Password",
        "description": "Reset Password",
        "operationId": "resetPassword",
        "parameters": [
          {
            "in": "body",
            "name": "reset password",
            "schema": {
              "$ref": "#/definitions/resetPassword"
            },
            "required": true
          }
        ],
        "responses": {}
      }
    },
    "/user/change-password": {
      "post": {
        "tags": [
          "User"
        ],
        "security": [
          {
            "Bearer": []
          }
        ],
        "summary": "Change password",
        "description": "Change password",
        "operationId": "changePassword",
        "parameters": [
          {
            "in": "body",
            "name": "Change password",
            "schema": {
              "$ref": "#/definitions/changePassword"
            },
            "required": true
          }
        ],
        "responses": {}
      }
    },
    "/reset/notifications": {
      "post": {
        "tags": [
          "User"
        ],
        "security": [
          {
            "Bearer": []
          }
        ],
        "summary": "Reset Notification",
        "description": "Reset Notification",
        "operationId": "ResetNotification",
        "parameters": [
          {
            "in": "body",
            "name": "Reset Notification",
            "schema": {
              "$ref": "#/definitions/resetNotification"
            },
            "required": true
          }
        ],
        "responses": {}
      }
    },
    
    "/logout": {
      "delete": {
        "tags": [
          "User"
        ],
        "security": [
          {
            "Bearer": []
          }
        ],
        "summary": "Logout",
        "description": "Logout",
        "operationId": "Logout",
        "parameters": [
          {
            "in": "body",
            "name": "logout",
            "schema": {
              "$ref": "#/definitions/Logout"
            },
            "required": true
          }
        ],
        "responses": {}
      }
    },
    "/deactivate/account": {
      "post": {
        "tags": [
          "User"
        ],
        "security": [
          {
            "Bearer": []
          }
        ],
        "summary": "Deactivate Account",
        "description": "Deactivate Account",
        "operationId": "deactivateAccount",
        "parameters": [
          {
            "in": "body",
            "name": "deactivate account",
            "schema": {
              "$ref": "#/definitions/deactivateAccount"
            },
            "required": true
          }
        ],
        "responses": {}
      }
    }
  },
  "securityDefinitions": {
    "Bearer": {
      "type": "apiKey",
      "name": "Authorization",
      "in": "header"
    }
  },
  "definitions": {
    "connectAccountWebhook":{
      "type": "object",
      "required": [],
      "properties": {
        "data": {
          "type": "string"
        }
      }
    },
    "Signup": {
      "type": "object",
      "required": [],
      "properties": {
        "gender":{
          "type":"string"
        },
        "first_name": {
          "type": "string"
        },
        "last_name": {
          "type": "string"
        },
        "email": {
          "type": "string"
        },
        "confirm_email": {
          "type": "string"
        },
        "password": {
          "type": "string"
        },
        "confirm_password": {
          "type": "string"
        },
        "user_type": {
          "type": "integer",
          "description": "1-student/parent,2-teacher,3-admin"
        },
        "fcm_id": {
          "type": "string"
        },
        "device_id": {
          "type": "string"
        },
        "device_type": {
          "type": "integer",
          "description": "1-android,2-ios"
        }
        
      }
    },
    "login": {
      "type": "object",
      "required": [],
      "properties": {
        "email": {
          "type": "string"
        },
        "password": {
          "type": "string"
        }
      }
    },
    "activateDeactivate":{
      "type": "object",
      "required": [],
      "properties": {
        "status": {
          "type": "integer",
          "description":"1 means deactivate, 0 means activate"
        }
      }
    },
    "homeContactUs":{
      "type": "object",
      "required": [],
      "properties": {
        "name": {
          "type": "string"
        },
        "email": {
          "type": "string"
        },
        "country_code": {
          "type": "string"
        },
        "phone_number": {
          "type": "string"
        },
        "message": {
          "type": "string"
        }
      }
    },
    "verifyEmail": {
      "type": "object",
      "properties": {
        "token": {
          "type": "string"
        }
      }
    },
    "verifyPhone": {
      "type": "object",
      "properties": {
        "code": {
          "type": "string"
        }
      }
    },
    "resendEmail": {
      "type": "object",
      "properties": {
        "email": {
          "type": "string"
        }
      }
    },
    "resendPhone": {
      "type": "object",
      "properties": {
        "phone_no": {
          "type": "string"
        }
      }
    },
    "forgotPassword": {
      "type": "object",
      "properties": {
        "email": {
          "type": "string"
        }
      }
    },
    "emailOtp":{
      "type": "object",
      "properties": {
        "otp": {
          "type": "string"
        }
      }
    },
    "resetNotification": {
      "type": "object",
      "properties": {
        "is_email_notified": {
          "type": "integer",
          "description": " 1 yes, 0 No"
        },
        "is_push_notified": {
          "type": "integer",
          "description": " 1 yes, 0 No"
        },
        "is_sms_notified": {
          "type": "integer",
          "description": " 1 yes, 0 No"
        }
      }
    },
    "resetPassword": {
      "type": "object",
      "properties": {
        "password": {
          "type": "string"
        }
      }
    },
    "changePassword": {
      "type": "object",
      "properties": {
        "old_password": {
          "type": "string"
        },
        "new_password": {
          "type": "string"
        }
      }
    },
    "updateUserProfile": {
      "type": "object",
      "properties": {
        "first_name": {
          "type": "string"
        },
        "last_name": {
          "type": "string"
        },
        "dob": {
          "type": "string",
          "decsription": "format- yyyy-mm-dd"
        },
        "email": {
          "type": "string"
        },
        "gender": {
          "type": "string"
        },
        "occupation": {
          "type": "integer"
        },
        "language": {
          "type": "array",
          "items": {
              "type": "integer"
              
          }
        },
        "nationality": {
          "type": "integer"
        },
        "country": {
          "type": "string"
        },
        "profile_image": {
          "type": "string"
        },
        "description": {
          "type": "string"
        },
        "paypal_username": {
          "type": "string"
        },
        "vectera_id":{
          "type": "string"
        }
      }
    },
    "addAcademic":{
      "type": "object",
      "properties": {
        "user_id": {
          "type": "integer"
        },
        "school": {
          "type": "string"
        },
        "level": {
          "type": "integer"
        },
        "country": {
          "type": "integer"
        },
        "year": {
          "type": "integer"
        },
        "image": {
          "type": "string"
        }
      }
    },
    "editAcademic":{
      "type": "object",
      "properties": {
        "user_id": {
          "type": "integer"
        },
        "academic_id": {
          "type": "integer"
        },
        "school": {
          "type": "string"
        },
        "level": {
          "type": "integer"
        },
        "country": {
          "type": "integer"
        },
        "year": {
          "type": "integer"
        },
        "image": {
          "type": "string"
        }
      }
    },
    "addCertificate":{
      "type": "object",
      "properties": {
        "user_id": {
          "type": "integer"
        },
        "certificate_name": {
          "type": "string"
        },
        "result": {
          "type": "string"
        },
        "year": {
          "type": "string"
        },
        "description": {
          "type": "string"
        },
        "image": {
          "type": "string"
        }
      }
    },
    "deleteCertificate":{
      "type": "object",
      "properties": {
        "id": {
          "type": "integer"
        }
      }
    },
    "deleteAcademic":{
      "type": "object",
      "properties": {
        "id": {
          "type": "integer"
        }
      }
    },
    "editCertificate":{
      "type": "object",
      "properties": {
        "user_id": {
          "type": "integer"
        },
        "certificate_id": {
          "type": "integer"
        },
        "certificate_name": {
          "type": "string"
        },
        "result": {
          "type": "string"
        },
        "year": {
          "type": "string"
        },
        "description": {
          "type": "string"
        },
        "image": {
          "type": "string"
        }
      }
    },
    
    "Logout": {
      "type": "object",
      "properties": {
        "device_id": {
          "type": "string"
        }
      }
    },
    "deactivateAccount": {
      "type": "object",
      "properties": {
        "deactivate_reason": {
          "type": "string"
        },
        "password": {
          "type": "string"
        }
      }
    },
    "adminNoti": {
      "type": "object",
      "required": [
        "title",
        "message",
        "users"
      ],
      "properties": {
        "title": {
          "type": "string"
        },
        "message": {
          "type": "string"
        },
        "users": {
          "type": "array",
          "required": [
            "user_id"
          ],
          "items": {
            "type": "object",
            "properties": {
              "user_id": {
                "type": "integer"
              }
            }
          }
        }
      }
    }
  }
}