{
  "paths": {
    "/admin/login": {
      "post": {
        "tags": [
          "admin"
        ],
        "security": [
          {
            "Bearer": []
          }
        ],
        "summary": "Login admin",
        "description": "Login admin",
        "operationId": "adminLogin",
        "parameters": [
          {
            "in": "body",
            "name": "dto",
            "description": "admin login",
            "schema": {
              "$ref": "#/definitions/adminLogin"
            },
            "required": true
          }
        ],
        "responses": {}
      }
     
    },
    "/admin/change-password": {
      "put": {
        "tags": [
          "admin"
        ],
        "security": [
          {
            "Bearer": []
          }
        ],
        "summary": "Change Password",
        "description": "Change Password",
        "operationId": "changePassword",
        "parameters": [
          {
            "in": "body",
            "name": "dto",
            "description": "change password",
            "schema": {
              "$ref": "#/definitions/changePswd"
            },
            "required": true
          }
        ],
        "responses": {}
      }
    },
    "/admin/dashboard": {
      "get": {
        "tags": [
          "admin"
        ],
        "security": [
          {
            "Bearer": []
          }
        ],
        "summary": "Get dashboard",
        "description": "Get dashboard",
        "operationId": "dashboard",
        "responses": {}
      }
    },
    "/admin/profile": {
      "put": {
        "tags": [
          "admin"
        ],
        "security": [
          {
            "Bearer": []
          }
        ],
        "summary": "Update  profile",
        "description": "Update user profile",
        "operationId": "updateProfile",
        "parameters": [
          {
            "in": "body",
            "name": "dto",
            "description": "update admin",
            "schema": {
              "$ref": "#/definitions/updateAdminProfile"
            },
            "required": false
          }
        ],
        "responses": {}
      },
      "get": {
        "tags": [
          "admin"
        ],
        "security": [
          {
            "Bearer": []
          }
        ],
        "summary": "Get user profile",
        "description": "Get user profile",
        "operationId": "profile",
        "responses": {}
      }
    },
    "/admin/users": {
      "get": {
        "tags": [
          "admin"
        ],
        "security": [
          {
            "Bearer": []
          }
        ],
        "summary": "Get users",
        "description": "Get users/staff",
        "operationId": "users",
        "parameters": [
          {
            "name": "limit",
            "in": "query",
            "required": false,
            "type": "integer",
            "format": "int64"
          },
          {
            "name": "page",
            "in": "query",
            "required": false,
            "type": "integer",
            "format": "int64"
          },
          {
            "name": "keyword",
            "in": "query",
            "description": "keyword",
            "required": false,
            "type": "string"
          },
          {
            "name": "type",
            "in": "query",
            "description": "type",
            "required": true,
            "type": "integer"
          },
          {
            "name": "is_blocked",
            "in": "query",
            "description": "1 : blocked, 0 : unblocked",
            "required": false,
            "type": "integer"
          }
        ],
        "responses": {}
      }
    },
 
    "/admin/user": {
      "post": {
        "tags": [
          "admin"
        ],
        "security": [
          {
            "Bearer": []
          }
        ],
        "summary": "add user",
        "description": "add user/staff details",
        "operationId": "addUserDetails",
        "parameters": [
          {
            "in": "body",
            "name": "dto",
            "description": "add user/staff",
            "schema": {
              "$ref": "#/definitions/addUser"
            },
            "required": true
          }
        ],
        "responses": {}
      },
      "get": {
        "tags": [
          "admin"
        ],
        "security": [
          {
            "Bearer": []
          }
        ],
        "summary": "Get user details",
        "description": "Get user/staff details",
        "operationId": "userDetails",
        "parameters": [
          {
            "in": "query",
            "name": "id",
            "required": true,
            "description": "user id"
          }
        ],
        "responses": {}
      },
      "put": {
        "tags": [
          "admin"
        ],
        "security": [
          {
            "Bearer": []
          }
        ],
        "summary": "edit user details",
        "description": "edit user/staff details",
        "operationId": "editUserDetails",
        "parameters": [
          {
            "in": "body",
            "name": "dto",
            "description": "update user",
            "schema": {
              "$ref": "#/definitions/updateUserDetails"
            },
            "required": true
          }
        ],
        "responses": {}
      },
      "delete": {
        "tags": [
          "admin"
        ],
        "security": [
          {
            "Bearer": []
          }
        ],
        "summary": "Delete user",
        "description": "Delete user/staff",
        "operationId": "Delete user",
        "parameters": [
          {
            "in": "body",
            "name": "dto",
            "description": "delete user",
            "schema": {
              "$ref": "#/definitions/deleteStaff"
            },
            "required": true
          }
        ],
        "responses": {}
      }
    },
    "/admin/user/block": {
      "put": {
        "tags": [
          "admin"
        ],
        "security": [
          {
            "Bearer": []
          }
        ],
        "summary": "Block Unblock user",
        "description": "Block Unblock user",
        "operationId": "blockUnblock",
        "parameters": [
          {
            "in": "body",
            "name": "dto",
            "description": "block user",
            "schema": {
              "$ref": "#/definitions/blockedUser"
            },
            "required": true
          }
        ],
        "responses": {}
      }
    },
    "/admin/user/deactivate": {
      "post": {
        "tags": [
          "admin"
        ],
        "security": [
          {
            "Bearer": []
          }
        ],
        "summary": "deactivate user",
        "description": "deactivate user",
        "operationId": "deactivateUser",
        "parameters": [
          {
            "in": "body",
            "name": "dto",
            "description": "deactivate user",
            "schema": {
              "$ref": "#/definitions/deactivateUser"
            },
            "required": true
          }
        ],
        "responses": {}
      }
    },
    "/admin/user/verify": {
      "post": {
        "tags": [
          "admin"
        ],
        "security": [
          {
            "Bearer": []
          }
        ],
        "summary": "verify user",
        "description": "verify user",
        "operationId": "verifyuser",
        "parameters": [
          {
            "in": "body",
            "name": "dto",
            "description": "verify user",
            "schema": {
              "$ref": "#/definitions/verifyUser"
            },
            "required": true
          }
        ],
        "responses": {}
      }
    },
    
    "/admin/project": {
      "post": {
        "tags": [
          "admin"
        ],
        "security": [
          {
            "Bearer": []
          }
        ],
        "summary": "Add project",
        "description": "Add project",
        "operationId": "Addproject",
        "parameters": [
          {
            "in": "body",
            "name": "dto",
            "description": "Add project",
            "schema": {
              "$ref": "#/definitions/addProject"
            },
            "required": true
          }
        ],
        "responses": {}
      },
      "get": {
        "tags": [
          "admin"
        ],
        "security": [
          {
            "Bearer": []
          }
        ],
        "summary": "projectDetails",
        "description": "projectDetails",
        "operationId": "projectDetails",
        "parameters": [
          {
            "in": "query",
            "name": "project_id",
            "required": true,
            "description": "project details",
            "type": "integer"
          }
        ],
        "responses": {}
      },
      "put": {
        "tags": [
          "admin"
        ],
        "security": [
          {
            "Bearer": []
          }
        ],
        "summary": "editProject",
        "description": "editProject",
        "operationId": "editProject ",
        "parameters": [
          {
            "in": "body",
            "name": "dto",
            "description": "edit project",
            "schema": {
              "$ref": "#/definitions/editProject"
            },
            "required": true
          }
        ],
        "responses": {}
      }
    },
    "/admin/projects": {
      "get": {
        "tags": [
          "admin"
        ],
        "security": [
          {
            "Bearer": []
          }
        ],
        "summary": "projectList",
        "description": "projectList",
        "operationId": "projectList",
        "parameters": [
          {
            "name": "limit",
            "in": "query",
            "required": false,
            "type": "integer",
            "format": "int64"
          },
          {
            "name": "page",
            "in": "query",
            "required": false,
            "type": "integer",
            "format": "int64"
          },
          {
            "name": "keyword",
            "in": "query",
            "description": "keyword",
            "required": false,
            "type": "string"
          }
        ],
        "responses": {}
      }
    },
    "/admin/content": {
      "post": {
        "tags": [
          "admin"
        ],
        "security": [
          {
            "Bearer": []
          }
        ],
        "summary": "Add content",
        "description": "Add content",
        "operationId": "addContent",
        "parameters": [
          {
            "in": "body",
            "name": "dto",
            "description": "add content",
            "schema": {
              "$ref": "#/definitions/addContent"
            },
            "required": true
          }
        ],
        "responses": {}
      },
      "get": {
        "tags": [
          "admin"
        ],
        "security": [
          {
            "Bearer": []
          }
        ],
        "summary": "contentDetails",
        "description": "contentDetails",
        "operationId": "contentDetails",
        "parameters": [
          {
            "in": "query",
            "name": "content_id",
            "required": true,
            "description": "content details",
            "type": "integer"
          }
        ],
        "responses": {}
      },
      "put": {
        "tags": [
          "admin"
        ],
        "security": [
          {
            "Bearer": []
          }
        ],
        "summary": "contentPost",
        "description": "contentPost",
        "operationId": "contentPost ",
        "parameters": [
          {
            "in": "body",
            "name": "dto",
            "description": "edit content",
            "schema": {
              "$ref": "#/definitions/editContent"
            },
            "required": true
          }
        ],
        "responses": {}
      },
      "delete": {
        "tags": [
          "admin"
        ],
        "security": [
          {
            "Bearer": []
          }
        ],
        "summary": "Delete content",
        "description": "Delete content",
        "operationId": "Delete content ",
        "parameters": [
          {
            "in": "body",
            "name": "dto",
            "description": "delete content",
            "schema": {
              "$ref": "#/definitions/deleteContent"
            },
            "required": true
          }
        ],
        "responses": {}
      }
    },
    "/admin/contents": {
      "get": {
        "tags": [
          "admin"
        ],
        "security": [
          {
            "Bearer": []
          }
        ],
        "summary": "contentList",
        "description": "contentList",
        "operationId": "contentList",
        "parameters": [
          {
            "name": "limit",
            "in": "query",
            "required": false,
            "type": "integer",
            "format": "int64"
          },
          {
            "name": "page",
            "in": "query",
            "required": false,
            "type": "integer",
            "format": "int64"
          },
          {
            "name": "keyword",
            "in": "query",
            "description": "keyword",
            "required": false,
            "type": "string"
          }
        ],
        "responses": {}
      }
    },
    "/admin/notification": {
      "post": {
        "tags": [
          "admin"
        ],
        "security": [
          {
            "Bearer": []
          }
        ],
        "summary": "send mail",
        "description": "send mail",
        "operationId": "sendmail",
        "parameters": [
          {
            "in": "body",
            "name": "dto",
            "description": "send mail",
            "schema": {
              "$ref": "#/definitions/sendmail"
            },
            "required": true
          }
        ],
        "responses": {}
      }
    },
    "/admin/contact-us": {
      "get": {
        "tags": [
          "admin"
        ],
        "security": [
          {
            "Bearer": []
          }
        ],
        "summary": "Get contacts",
        "description": "Get contacts",
        "operationId": "contacts",
        "parameters": [
          {
            "name": "limit",
            "in": "query",
            "required": false,
            "type": "integer",
            "format": "int64"
          },
          {
            "name": "page",
            "in": "query",
            "required": false,
            "type": "integer",
            "format": "int64"
          },
          {
            "name": "keyword",
            "in": "query",
            "description": "keyword",
            "required": false,
            "type": "string"
          }
        ],
        "responses": {}
      },
      "delete": {
        "tags": [
          "admin"
        ],
        "security": [
          {
            "Bearer": []
          }
        ],
        "summary": "Delete contact",
        "description": "Delete contact",
        "operationId": "Delete contact ",
        "parameters": [
          {
            "in": "body",
            "name": "dto",
            "description": "delete contact",
            "schema": {
              "$ref": "#/definitions/deleteContact"
            },
            "required": true
          }
        ],
        "responses": {}
      }
    },
    "/admin/backup-db": {
      "get": {
        "tags": [
          "admin"
        ],
        "security": [
          {
            "Bearer": []
          }
        ],
        "summary": "DB Backup",
        "description": "DB Backup",
        "operationId": "Backup",
       "responses": {}
      }
    }
  },

  "securitySchemes": {
    "Bearer": {
      "type": "apiKey",
      "name": "Authorization",
      "in": "header"
    }
  },
  "definitions": {
    "Signup": {
      "type": "object",
      "required": [],
      "properties": {
        "first_name": {
          "type": "string"
        },
        "last_name": {
          "type": "string"
        },
        "email": {
          "type": "string"
        },
        "password": {
          "type": "string"
        },
        "fcm_id": {
          "type": "string"
        },
        "device_id": {
          "type": "string"
        },
        "device_type": {
          "type": "integer",
          "description": "1-android,2-ios"
        }
      }
    },
    "login": {
      "type": "object",
      "required": [],
      "properties": {
        "first_name": {
          "type": "string"
        },
        "last_name": {
          "type": "string"
        },
        "email": {
          "type": "string"
        },
        "password": {
          "type": "string"
        },
        "fcm_id": {
          "type": "string"
        },
        "device_id": {
          "type": "string"
        },
        "device_type": {
          "type": "integer",
          "description": "1-android,2-ios"
        },
        "fb_id": {
          "type": "string"
        },
        "google_id": {
          "type": "string"
        },
        "apple_id": {
          "type": "string"
        }
      }
    },
    "verifyEmail": {
      "type": "object",
      "properties": {
        "token": {
          "type": "string"
        }
      }
    },
    "forgotPassword": {
      "type": "object",
      "properties": {
        "email": {
          "type": "string"
        }
      }
    },
    "resetPassword": {
      "type": "object",
      "properties": {
        "token": {
          "type": "string"
        },
        "password": {
          "type": "string"
        }
      }
    },
    "backup-db": {
      "type": "object",
      "properties": {
        "email": {
          "type": "string"
        }
      }
    },
    "changePswd": {
      "type": "object",
      "properties": {
        "id": {
          "type": "integer"
        },
        "old_password": {
          "type": "string"
        },
        "new_password": {
          "type": "string"
        }
      }
    },
    "updateUserProfile": {
      "type": "object",
      "properties": {
        "first_name": {
          "type": "string"
        },
        "last_name": {
          "type": "string"
        },
        "phone_number": {
          "type": "integer"
        },
        "country_code": {
          "type": "string"
        },
        "country_abbr": {
          "type": "string"
        },
        "zip": {
          "type": "integer"
        },
        "lat": {
          "type": "string"
        },
        "lng": {
          "type": "string"
        },
        "address": {
          "type": "string"
        },
        "city": {
          "type": "string"
        },
        "state": {
          "type": "string"
        },
        "country": {
          "type": "string"
        },
        "profile_image": {
          "type": "string"
        }
      }
    },
    "Logout": {
      "type": "object",
      "properties": {
        "device_id": {
          "type": "string"
        }
      }
    },
    "deactivateAccount": {
      "type": "object",
      "properties": {
        "deactivate_reason": {
          "type": "string"
        },
        "password": {
          "type": "string"
        }
      }
    },
    "adminLogin": {
      "type": "object",
      "required": [],
      "properties": {
        "email": {
          "type": "string"
        },
        "password": {
          "type": "string"
        }
      }
    },
    "updateAdminProfile": {
      "type": "object",
      "required": [],
      "properties": {
        "first_name": {
          "type": "string"
        },
        "last_name": {
          "type": "string"
        },
        "profile_image": {
          "type": "string"
        }
      }
    },
    "updateUserDetails": {
      "type": "object",
      "properties": {
        "id": {
          "type": "integer"
        },
        "first_name": {
          "type": "string"
        },
        "last_name": {
          "type": "string"
        },
        "phone_number": {
          "type": "integer"
        },
        "country_code": {
          "type": "string"
        },
        "email": {
          "type": "string"
        },
        "zip": {
          "type": "integer"
        },
        "lat": {
          "type": "string"
        },
        "lng": {
          "type": "string"
        },
        "address": {
          "type": "string"
        },
        "city": {
          "type": "string"
        },
        "state": {
          "type": "string"
        },
        "country": {
          "type": "string"
        },
        "profile_image": {
          "type": "string"
        },
        "type": {
          "type": "integer"
        },
        "description": {
          "type": "string"
        },
        "dob": {
          "type": "string"
        }
      }
    },
    "addUser": {
      "type": "object",
      "properties": {
        "first_name": {
          "type": "string"
        },
        "last_name": {
          "type": "string"
        },
        "phone_number": {
          "type": "integer"
        },
        "country_code": {
          "type": "string"
        },
        "email": {
          "type": "string"
        },
        "password": {
          "type": "string"
        },
        "address": {
          "type": "string"
        },
        "city": {
          "type": "string"
        },
        "state": {
          "type": "string"
        },
        "country": {
          "type": "string"
        },
        "profile_image": {
          "type": "string"
        },
        "dob": {
          "type": "string"
        },
        "type": {
          "type": "integer",
          "description": "1:user, 2:admin, 3:staff"
        },
        "description": {
          "type": "string"
        }
      }
    },
    "editProject": {
      "type": "object",
      "required": [],
      "properties": {
        "id": {
          "type": "integer"
        },
        "title": {
          "type": "string"
        },
        "description": {
          "type": "string"
        },
        "price": {
          "type": "integer"
        },
        "status": {
          "type": "integer",
          "description":"0 - pending, 1 - completed, 0 - rejected"
        },
        "location": {
          "type": "string"
        },
        "images": {
          "type": "array",
          "items": {
            "type": "string"
          }
        }
      }
    },
    "editContent": {
      "type": "object",
      "required": [],
      "properties": {
        "id": {
          "type": "integer"
        },
        "title": {
          "type": "string"
        },
        "content": {
          "type": "string"
        },
        "image": {
          "type": "string"
        }
      }
    },
    "deleteProject": {
      "type": "object",
      "required": [],
      "properties": {
        "id": {
          "type": "integer"
        }
      }
    },
    "addContent": {
      "type": "object",
      "properties": {
        "title": {
          "type": "string"
        },
        "content": {
          "type": "string"
        },
        "image": {
          "type": "string"
        }
      }
    },
    "deleteContent": {
      "type": "object",
      "required": [],
      "properties": {
        "id": {
          "type": "integer"
        }
      }
    },
    "deleteContact": {
      "type": "object",
      "required": [],
      "properties": {
        "id": {
          "type": "integer"
        }
      }
    },
    "deleteStaff": {
      "type": "object",
      "required": [],
      "properties": {
        "id": {
          "type": "integer"
        }
      }
    },
    "blockedUser": {
      "type": "object",
      "required": [],
      "properties": {
        "id": {
          "type": "integer"
        },
        "unblock": {
          "type": "integer",
          "description": "1:blocked, 0:unblock"
        },
        "type": {
          "type": "integer",
          "description": "1:user, 2:admin, 3:staff "
        }
      }
    },
    "deactivateUser": {
      "type": "object",
      "required": [],
      "properties": {
        "id": {
          "type": "integer"
        },
        "is_deactivate": {
          "type": "integer",
          "description": "1:deactivate, 0:activate"
        },
        "deactivate_reason": {
          "type": "string",
          "description": "deactivate reason"
        }
      }
    },
    "verifyUser": {
      "type": "object",
      "required": [],
      "properties": {
        "id": {
          "type": "integer"
        },
        "is_verified": {
          "type": "integer",
          "description": "1: verified, 0: not verified"
        }
      }
    },
    "addProject": {
      "type": "object",
      "required": [],
      "properties": {
        "id": {
          "type": "integer"
        },
        "title": {
          "type": "string"
        },
        "description": {
          "type": "string"
        },
        "price": {
          "type": "integer"
        },
        "location": {
          "type": "string"
        },
        "images": {
          "type": "array",
          "items": {
            "type": "string"
          }
        }
      }
    },
    "sendmail": {
      "type": "object",
      "required": [],
      "properties": {
        "emails": {
          "type": "array",
          "items": {
            "type": "string"
          }
        },
        "subject": {
          "type": "string"
        },
        "push_content": {
          "type": "string"
        },
        "email_content": {
          "type": "string"
        },
        "type": {
          "type": "integer",
          "description": "0 - All users, 1 - selected users"
        },
        "notification_type": {
          "type": "integer",
          "description": "null-Both, 0 - Email ,1 - Push ,2- Both"
        }
      }
    }
  }
}